0.40
0.153
0.26
0.209
0.43
0.185
0.80
0.27
0.137
0.94
0.27
0.95
0.30
0.75
0.24
0.94
0.25
0.75
0.25
0.137
0.32
0.115
0.27
0.156
0.27
0.170
0.106
0.29
0.84
0.29
0.98
0.38
0.84
0.29
0.81
0.28
0.118
0.29
0.137
0.62
0.26
0.72
0.43
0.133
0.100
0.120
0.239
0.193
0.109
0.38
0.109
0.25
0.114
0.105
0.70
0.104
0.26
0.36
0.154
0.31
0.122
0.24
0.166
0.36
0.119
0.26
0.546
0.490
0.363
0.259
0.160
0.61
0.115
0.27
0.37
0.324
0.130
0.39
0.131
0.33
0.29
0.130
0.29
0.226
0.46
0.84
0.38
0.106
0.26
0.173
0.31
0.482
0.424
0.324
0.249
0.148
0.54
0.137
0.26
0.109
0.25
0.72
0.105
0.103
0.25
0.238
0.193
0.117
0.47
0.238
0.193
0.116
0.46
0.25
0.123
0.28
0.132
0.26
0.104
0.25
0.168
0.31
0.163
0.25
0.173
0.30
0.135
0.29
0.99
0.28
0.180
0.35
0.158
0.170
0.105
0.32
0.69
0.28
0.76
0.129
0.75
0.25
0.72
0.25
0.81
0.25
0.91
0.40
0.78
0.24
0.149
0.30
0.164
0.27
0.85
0.25
0.82
0.26
0.147
0.85
0.30
0.82
0.25
0.238
0.27
0.147
0.70
0.26
0.75
0.25
0.125
0.35
0.151
0.35
0.282
0.434
0.38
0.26
0.103
0.27
0.230
0.440
0.387
0.315
0.245
0.184
0.112
0.44
0.26
0.80
0.25
0.77
0.27
0.141
0.31
0.396
0.347
0.256
0.183
0.110
0.41
0.218
0.33
0.86
0.106
0.27
0.271
0.30
0.104
0.26
0.153
0.30
0.98
0.39
0.81
0.103
0.33
0.85
0.148
0.75
0.25
0.234
0.31
0.125
0.77
0.25
0.135
0.26
0.87
0.26
0.122
0.33
0.1628
0.1013
0.969
0.918
0.698
0.617
0.543
0.463
0.318
0.242
0.171
0.102
0.39
0.132
0.32
0.545
0.44
0.135
0.26
0.156
0.35
0.327
0.28
0.168
0.41
0.129
0.67
0.88
0.25
0.77
0.25
0.74
0.25
0.91
0.25
0.167
0.26
0.163
0.28
0.90
0.27
0.79
0.25
0.159
0.25
0.125
0.26
0.207
0.28
0.245
0.34
0.137
0.27
0.102
0.26
0.147
0.27
0.87
0.28
0.265
0.26
0.26
0.173
0.35
0.133
0.29
0.124
0.27
0.116
0.27
0.80
0.25
0.89
0.26
0.197
0.27
0.144
0.27
0.106
0.24
0.127
0.25
0.116
0.94
0.26
0.152
0.26
0.96
0.23
0.175
0.26
0.128
0.53
0.83
0.25
0.74
0.23
0.97
0.23
0.122
0.26
0.115
0.28
0.207
0.115
0.25
0.151
0.23
0.130
0.28
0.112
0.25
0.78
0.25
0.234
0.25
0.198
0.43
0.181
0.76
0.99
0.26
0.164
0.29
0.112
0.23
0.143
0.28
0.117
0.70
0.24
0.105
0.27
0.210
0.27
0.137
0.26
0.166
0.28
0.120
0.28
0.75
0.25
0.143
0.28
0.142
0.27
0.165
0.25
0.224
0.26
0.187
0.26
0.239
0.28
0.85
0.25
0.104
0.25
0.337
0.29
0.116
0.26
0.135
0.24
0.86
0.23
0.72
0.25
0.101
0.29
0.228
0.31
0.185
0.24
0.79
0.26
0.88
0.26
0.78
0.26
0.73
0.23
0.335
0.32
0.95
0.26
0.79
0.29
0.79
0.47
0.79
0.24
0.74
0.25
0.110
0.25
0.181
0.26
0.25
0.199
0.65
0.27
0.25
0.25
0.26
0.126
0.25
0.133
0.34
0.153
0.28
0.126
0.26
0.146
0.27
0.272
0.29
0.109
0.26
0.201
0.27
0.83
0.26
0.111
0.26
0.352
0.41
0.160
0.27
0.624
0.39
0.264
0.1427
0.35
0.108
0.0
0.163
0.76
0.25
0.119
0.26
0.118
0.121
0.675
0.612
0.249
0.151
0.61
0.60
0.26
0.102
0.25
0.116
0.25
0.95
0.28
0.75
0.25
0.73
0.25
0.102
0.25
0.218
0.192
0.28
0.187
0.159
0.104
0.26
0.442
0.383
0.188
0.116
0.46
0.26
0.143
0.27
0.594
0.489
0.402
0.267
0.164
0.52
0.134
0.30
0.237
0.54
0.184
0.137
0.43
0.29
0.116
0.23
0.133
0.31
0.93
0.31
0.155
0.153
0.112
0.16
0.70
0.36
0.116
0.33
0.102
0.25
0.71
0.25
0.115
0.29
0.203
0.27
0.100
0.25
0.128
0.32
0.138
0.31
0.181
0.56
0.29
0.154
0.48
0.45
0.34
0.181
0.76
0.29
0.183
0.33
0.324
0.276
0.194
0.122
0.43
0.666
0.523
0.283
0.206
0.136
0.67
0.33
0.116
0.49
0.26
0.26
0.26
0.105
0.27
0.164
0.30
0.125
0.27
0.169
0.34
0.182
0.106
0.106
0.26
0.130
0.35
0.180
0.339
0.292
0.114
0.39
0.78
0.25
0.75
0.72
0.76
0.27
0.1020
0.764
0.652
0.540
0.469
0.362
0.267
0.196
0.127
0.57
0.29
0.30
0.193
0.41
0.115
0.29
0.153
0.27
0.123
0.25
0.164
0.26
0.113
0.0
0.30
0.103
0.31
0.116
0.25
0.129
0.27
0.155
0.26
0.101
0.25
0.174
0.26
0.135
0.26
0.144
0.27
0.298
0.56
0.41
0.223
0.26
0.129
0.25
0.252
0.27
0.205
0.95
0.31
0.24
0.109
0.34
0.133
0.165
0.115
0.28
0.25
0.98
0.28
0.175
0.34
0.121
0.27
0.26
0.512
0.449
0.281
0.159
0.55
0.134
0.25
0.119
0.144
0.27
0.81
0.98
0.30
0.27
0.114
0.123
0.28
0.89
0.25
0.108
0.26
0.85
0.27
0.412
0.357
0.127
0.56
0.396
0.335
0.180
0.108
0.39
0.140
0.28
0.138
0.27
0.631
0.569
0.498
0.425
0.333
0.251
0.180
0.110
0.41
0.253
0.33
0.277
0.71
0.120
0.25
0.25
0.271
0.25
0.305
0.59
0.116
0.107
0.100
0.25
0.119
0.25
0.654
0.285
0.28
0.416
0.248
0.186
0.114
0.43
0.26
0.156
0.31
0.132
0.26
0.69
0.23
0.137
0.29
0.125
0.27
0.101
0.25
0.114
0.25
0.651
0.593
0.454
0.370
0.305
0.231
0.169
0.115
0.48
0.155
0.58
0.330
0.33
0.206
0.25
0.124
0.25
0.160
0.29
0.259
0.28
0.148
0.30
0.24
0.26
0.261
0.91
0.29
0.231
0.26
0.25
0.153
0.43
0.147
0.41
0.73
0.25
0.393
0.260
0.100
0.43
0.110
0.25
0.91
0.29
0.706
0.76
0.28
0.331
0.36
0.111
0.23
0.68
0.23
0.37
0.25
0.25
0.112
0.69
0.163
0.27
0.110
0.25
0.119
0.28
0.72
0.25
0.128
0.31
0.942
0.835
0.482
0.390
0.295
0.222
0.149
0.32
0.103
0.23
0.98
0.23
0.72
0.29
0.71
0.29
0.71
0.25
0.87
0.25
0.311
0.35
0.110
0.26
0.111
0.26
0.82
0.23
0.69
0.22
0.121
0.28
0.75
0.25
0.80
0.25
0.61
0.81
0.25
0.76
0.25
0.117
0.82
0.25
0.88
0.26
0.118
0.28
0.128
0.26
0.119
0.34
0.126
0.73
0.25
0.119
0.31
0.122
0.27
0.81
0.25
0.112
0.25
0.254
0.205
0.111
0.38
0.86
0.12
0.1124
0.38
0.172
0.45
0.111
0.29
0.114
0.26
0.94
0.27
0.106
0.25
0.75
0.25
0.75
0.25
0.116
0.30
0.135
0.27
0.154
0.241
0.26
0.211
0.40
0.101
0.36
0.80
0.40
0.77
0.24
0.599
0.26
0.101
0.25
0.90
0.29
0.108
0.28
0.93
0.26
0.115
0.25
0.132
0.25
0.75
0.24
0.79
0.26
0.164
0.27
0.77
0.25
0.94
0.29
0.136
0.26
0.108
0.26
0.730
0.669
0.461
0.359
0.250
0.154
0.57
0.159
0.37
0.143
0.26
0.130
0.26
0.172
0.27
0.0
0.33
0.28
0.174
0.33
0.192
0.27
0.123
0.26
0.223
0.30
0.133
0.28
0.28
0.26
0.111
0.26
0.158
0.76
0.316
0.268
0.184
0.112
0.39
0.209
0.26
0.123
0.36
0.102
0.25
0.134
0.34
0.91
0.25
0.612
0.30
0.119
0.26
0.78
0.25
0.143
0.30
0.185
0.30
0.103
0.24
0.255
0.32
0.137
0.207
0.103
0.26
0.83
0.25
0.97
0.101
0.42
0.28
0.77
0.25
0.114
0.25
0.1104
0.1037
0.872
0.695
0.469
0.340
0.215
0.94
0.33
0.132
0.111
0.166
0.44
0.156
0.33
0.182
0.26
0.58
0.30
0.29
0.29
0.169
0.115
0.228
0.163
0.116
0.37
0.95
0.23
0.291
0.34
0.377
0.335
0.227
0.137
0.49
0.72
0.27
0.143
0.27
0.129
0.118
0.26
0.111
0.28
0.94
0.27
0.168
0.24
0.292
0.109
0.27
0.25
0.157
0.26
0.93
0.26
0.163
0.39
0.376
0.27
0.119
0.27
0.397
0.35
0.258
0.31
0.169
0.27
0.102
0.23
0.178
0.26
0.91
0.25
0.119
0.27
0.74
0.25
0.193
0.26
0.263
0.64
0.326
0.41
0.114
0.26
0.129
0.26
0.130
0.26
0.138
0.58
0.339
0.290
0.185
0.113
0.44
0.26
0.108
0.26
0.128
0.76
0.31
0.74
0.27
0.77
0.25
0.272
0.226
0.150
0.61
0.143
0.23
0.255
0.212
0.126
0.40
0.75
0.25
0.190
0.34
0.99
0.27
0.110
0.29
0.169
0.72
0.30
0.194
0.25
0.133
0.29
0.132
0.225
0.74
0.25
0.104
0.25
0.136
0.35
0.166
0.26
0.98
0.25
0.204
0.463
0.410
0.219
0.134
0.47
0.100
0.35
0.184
0.191
0.134
0.48
0.28
0.0
0.25
0.108
0.72
0.25
0.125
0.27
0.244
0.198
0.117
0.39
0.77
0.25
0.120
0.30
0.246
0.28
0.30
0.189
0.98
0.25
0.245
0.200
0.116
0.37
0.74
0.65
0.25
0.136
0.67
0.25
0.90
0.31
0.119
0.28
0.261
0.32
0.305
0.27
0.133
0.27
0.186
0.275
0.28
0.289
0.34
0.106
0.169
0.143
0.116
0.26
0.209
0.24
0.25
0.434
0.85
0.27
0.990
0.32
0.115
0.27
0.26
0.253
0.29
0.118
0.29
0.443
0.36
0.296
0.26
0.119
0.52
0.24
0.78
0.26
0.342
0.33
0.224
0.29
0.74
0.25
0.111
0.33
0.486
0.414
0.205
0.91
0.42
0.160
0.27
0.165
0.26
0.509
0.47
0.111
0.26
0.161
0.26
0.36
0.538
0.29
0.430
0.383
0.265
0.188
0.116
0.45
0.31
0.450
0.27
0.461
0.245
0.194
0.115
0.44
0.26
0.157
0.28
0.160
0.27
0.396
0.345
0.213
0.126
0.50
0.27
0.129
0.30
0.143
0.27
0.97
0.25
0.78
0.26
0.95
0.23
0.178
0.85
0.25
0.72
0.26
0.224
0.179
0.107
0.37
0.121
0.27
0.144
0.82
0.25
0.196
0.29
0.94
0.29
0.131
0.27
0.113
0.33
0.89
0.29
0.85
0.30
0.97
0.25
0.118
0.26
0.94
0.25
0.91
0.40
0.91
0.26
0.84
0.28
0.96
0.26
0.319
0.38
0.336
0.280
0.160
0.71
0.34
0.129
0.29
0.101
0.31
0.94
0.37
0.127
0.31
0.88
0.30
0.89
0.31
0.312
0.252
0.42
0.38
0.26
0.89
0.25
0.75
0.25
0.87
0.71
0.25
0.78
0.24
0.87
0.24
0.94
0.25
0.97
0.25
0.132
0.28
0.118
0.77
0.25
0.86
0.76
0.24
0.83
0.24
0.67
0.22
0.106
0.70
0.22
0.108
0.26
0.160
0.118
0.68
0.30
0.102
0.100
0.37
0.69
0.24
0.102
0.31
0.82
0.25
0.78
0.32
0.77
0.25
0.130
0.77
0.26
0.272
0.34
0.121
0.131
0.119
0.81
0.234
0.79
0.89
0.25
0.60
0.106
0.52
0.26
0.81
0.35
0.125
0.79
0.26
0.97
0.117
0.26
0.77
0.25
0.126
0.26
0.70
0.29
0.73
0.25
0.159
0.30
0.100
0.32
0.159
0.34
0.0
0.0
0.73
0.32
0.25
0.131
0.26
0.169
0.27
0.153
0.27
0.137
0.127
0.101
0.98
0.135
0.25
0.102
0.37
0.99
0.27
0.244
0.197
0.116
0.40
0.140
0.133
0.25
0.74
0.28
0.116
0.27
0.124
0.198
0.70
0.118
0.81
0.107
0.29
0.23
0.141
0.32
0.121
0.88
0.29
0.342
0.26
0.59
0.31
0.146
0.42
0.123
0.26
0.26
0.263
0.217
0.130
0.44
0.26
0.201
0.62
0.30
0.28
0.165
0.29
0.110
0.103
0.26
0.83
0.25
0.122
0.26
0.108
0.34
0.82
0.27
0.128
0.27
0.144
0.36
0.92
0.36
0.181
0.27
0.183
0.110
0.29
0.102
0.32
0.121
0.26
0.799
0.738
0.612
0.522
0.447
0.371
0.299
0.216
0.147
0.76
0.30
0.130
0.43
0.133
0.33
0.131
0.27
0.102
0.26
0.132
0.147
0.26
0.100
0.25
0.127
0.72
0.25
0.110
0.35
0.181
0.27
0.80
0.26
0.26
0.263
0.52
0.159
0.26
0.26
0.172
0.114
0.120
0.101
0.124
0.125
0.42
0.160
0.30
0.414
0.60
0.28
0.117
0.27
0.248
0.202
0.112
0.39
0.152
0.25
0.79
0.25
0.135
0.28
0.123
0.29
0.121
0.26
0.75
0.39
0.104
0.25
0.72
0.24
0.745
0.0
0.179
0.30
0.415
0.30
0.80
0.25
0.120
0.26
0.110
0.27
0.119
0.26
0.79
0.24
0.243
0.32
0.28
0.304
0.47
0.200
0.60
0.107
0.26
0.306
0.66
0.118
0.26
0.78
0.55
0.83
0.25
0.74
0.31
0.86
0.26
0.159
0.36
0.149
0.25
0.29
0.112
0.27
0.185
0.27
0.238
0.188
0.109
0.38
0.102
0.25
0.110
0.37
0.87
0.33
0.117
0.26
0.117
0.41
0.76
0.24
0.76
0.24
0.80
0.31
0.80
0.25
0.156
0.27
0.140
0.26
0.107
0.25
0.74
0.25
0.72
0.25
0.70
0.25
0.70
0.24
0.143
0.82
0.25
0.77
0.33
0.79
0.32
0.83
0.24
0.245
0.198
0.109
0.38
0.154
0.26
0.89
0.23
0.76
0.24
0.100
0.25
0.96
0.23
0.118
0.96
0.107
0.40
0.71
0.78
0.26
0.102
0.26
0.111
0.25
0.176
0.120
0.54
0.29
0.262
0.144
0.25
0.120
0.50
0.140
0.34
0.122
0.35
0.34
0.27
0.25
0.127
0.96
0.921
0.864
0.710
0.615
0.526
0.439
0.353
0.250
0.65
0.28
0.107
0.32
0.135
0.34
0.25
0.106
0.26
0.106
0.25
0.114
0.27
0.104
0.25
0.163
0.24
0.144
0.23
0.126
0.27
0.79
0.25
0.141
0.26
0.222
0.26
0.111
0.25
0.310
0.38
0.107
0.29
0.157
0.37
0.102
0.26
0.119
0.29
0.225
0.35
0.31
0.353
0.52
0.28
0.217
0.29
0.136
0.33
0.398
0.79
0.509
0.94
0.26
0.227
0.52
0.114
0.39
0.138
0.28
0.101
0.281
0.236
0.156
0.44
0.26
0.206
0.34
0.283
0.75
0.26
0.106
0.25
0.74
0.26
0.76
0.25
0.108
0.26
0.113
0.27
0.119
0.26
0.133
0.26
0.25
0.78
0.47
0.32
0.126
0.31
0.75
0.26
0.92
0.27
0.72
0.24
0.77
0.31
0.114
0.25
0.108
0.35
0.105
0.28
0.134
0.31
0.89
0.22
0.79
0.24
0.336
0.37
0.197
0.26
0.124
0.32
0.135
0.82
0.27
0.300
0.107
0.25
0.155
0.28
0.418
0.372
0.298
0.225
0.180
0.110
0.41
0.237
0.29
0.16
0.101
0.103
0.61
0.79
0.71
0.27
0.116
0.27
0.1104
0.382
0.189
0.114
0.43
0.133
0.25
0.473
0.427
0.322
0.211
0.145
0.50
0.98
0.23
0.264
0.34
0.459
0.412
0.145
0.48
0.176
0.28
0.127
0.25
0.141
0.24
0.87
0.23
0.158
0.27
0.135
0.26
0.164
0.29
0.126
0.28
0.119
0.26
0.386
0.25
0.28
0.308
0.28
0.50
0.27
0.32
0.135
0.35
0.174
0.26
0.22
0.26
0.162
0.29
0.146
0.39
0.249
0.26
0.130
0.127
0.27
0.300
0.29
0.105
0.29
0.210
0.28
0.117
0.24
0.29
0.400
0.34
0.166
0.29
0.156
0.37
0.141
0.32
0.122
0.27
0.70
0.120
0.81
0.25
0.107
0.27
0.205
0.31
0.171
0.36
0.157
0.88
0.55
0.30
0.103
0.32
0.129
0.27
0.125
0.27
0.233
0.35
0.122
0.27
0.34
0.152
0.42
0.113
0.28
0.247
0.29
0.142
0.27
0.338
0.276
0.193
0.120
0.45
0.26
0.160
0.64
0.26
0.26
0.30
0.167
0.32
0.504
0.440
0.340
0.238
0.66
0.129
0.27
0.237
0.190
0.109
0.38
0.116
0.25
0.112
0.138
0.84
0.136
0.245
0.37
0.12
0.28
0.145
0.29
0.235
0.189
0.112
0.42
0.227
0.183
0.111
0.39
0.319
0.273
0.190
0.120
0.40
0.161
0.36
0.99
0.31
0.824
0.166
0.48
0.89
0.26
0.195
0.77
0.79
0.23
0.246
0.30
0.309
0.27
0.78
0.26
0.91
0.27
0.93
0.31
0.99
0.25
0.117
0.26
0.125
0.44
0.86
0.25
0.173
0.27
0.149
0.113
0.27
0.67
0.25
0.123
0.78
0.25
0.187
0.30
0.102
0.27
0.118
0.27
0.166
0.88
0.12
0.74
0.26
0.75
0.25
0.77
0.8
0.219
0.137
0.290
0.42
0.165
0.30
0.255
0.61
0.28
0.253
0.31
0.98
0.27
0.101
0.30
0.102
0.31
0.114
0.27
0.132
0.26
0.73
0.24
0.140
0.28
0.113
0.27
0.90
0.25
0.84
0.25
0.93
0.25
0.80
0.25
0.74
0.24
0.72
0.26
0.72
0.51
0.140
0.27
0.87
0.113
0.116
0.111
0.23
0.124
0.23
0.77
0.25
0.78
0.25
0.180
0.27
0.115
0.26
0.271
0.30
0.112
0.155
0.78
0.26
0.278
0.27
0.79
0.26
0.334
0.32
0.245
0.28
0.26
0.179
0.194
0.28
0.252
0.204
0.112
0.39
0.167
0.116
0.29
0.132
0.30
0.129
0.106
0.93
0.85
0.27
0.116
0.155
0.134
0.30
0.124
0.45
0.170
0.34
0.157
0.103
0.112
0.23
0.77
0.25
0.111
0.86
0.23
0.150
0.157
0.111
0.73
0.221
0.27
0.80
0.34
0.75
0.23
0.80
0.25
0.159
0.40
0.147
0.80
0.33
0.88
0.25
0.80
0.25
0.90
0.64
0.75
0.28
0.142
0.0
0.199
0.32
0.163
0.94
0.30
0.111
0.86
0.27
0.645
0.33
0.99
0.31
0.27
0.134
0.31
0.118
0.28
0.220
0.46
0.17
0.47
0.38
0.186
0.31
0.136
0.34
0.152
0.25
0.266
0.32
0.199
0.32
0.119
0.26
0.103
0.25
0.198
0.99
0.157
0.31
0.125
0.32
0.766
0.721
0.641
0.551
0.462
0.405
0.243
0.56
0.210
0.33
0.137
0.27
0.82
0.26
0.128
0.189
0.159
0.26
0.79
0.25
0.75
0.31
0.73
0.25
0.78
0.25
0.131
0.28
0.143
0.109
0.36
0.248
0.26
0.309
0.26
0.101
0.26
0.102
0.29
0.90
0.24
0.126
0.31
0.166
0.35
0.724
0.663
0.544
0.441
0.395
0.323
0.253
0.185
0.116
0.48
0.27
0.185
0.33
0.144
0.108
0.44
0.65
0.25
0.230
0.185
0.111
0.42
0.76
0.25
0.25
0.46
0.25
0.224
0.31
0.137
0.26
0.73
0.24
0.74
0.24
0.71
0.24
0.75
0.24
0.73
0.25
0.122
0.25
0.193
0.26
0.198
0.32
0.285
0.50
0.186
0.28
0.39
0.26
0.25
0.119
0.28
0.27
0.149
0.26
0.136
0.26
0.249
0.29
0.135
0.33
0.124
0.31
0.304
0.51
0.220
0.30
0.263
0.326
0.30
0.237
0.27
0.26
0.134
0.26
0.207
0.32
0.102
0.102
0.28
0.81
0.25
0.88
0.29
0.77
0.87
0.26
0.82
0.25
0.178
0.95
0.89
0.35
0.97
0.27
0.116
0.37
0.127
0.79
0.26
0.116
0.27
0.266
0.35
0.129
0.373
0.32
0.27
0.436
0.385
0.274
0.189
0.116
0.43
0.76
0.114
0.149
0.32
0.83
0.23
0.112
0.23
0.80
0.25
0.146
0.81
0.152
0.64
0.273
0.132
0.223
0.27
0.135
0.27
0.364
0.46
0.37
0.122
0.12
0.1205
0.2579
0.36
0.298
0.28
0.406
0.344
0.218
0.139
0.43
0.191
0.35
0.305
0.146
0.375
0.316
0.199
0.119
0.45
0.140
0.26
0.29
0.338
0.32
0.48
0.508
0.446
0.329
0.245
0.169
0.55
0.75
0.26
0.25
0.147
0.28
0.104
0.286
0.240
0.134
0.40
0.72
0.25
0.113
0.29
0.363
0.324
0.210
0.129
0.50
0.29
0.394
0.344
0.237
0.157
0.126
0.27
0.518
0.468
0.387
0.303
0.248
0.159
0.59
0.30
0.751
0.683
0.533
0.417
0.310
0.227
0.176
0.67
0.58
0.27
0.53
0.58
0.27
0.27
0.26
0.1093
0.1044
0.906
0.850
0.769
0.687
0.559
0.483
0.412
0.329
0.267
0.217
0.148
0.53
0.74
0.33
0.211
0.42
0.143
0.76
0.206
0.69
0.24
0.69
0.25
0.196
0.27
0.394
0.27
0.103
0.170
0.38
0.313
0.28
0.131
0.32
0.18
0.45
0.288
0.240
0.122
0.42
0.343
0.37
0.173
0.73
0.27
0.322
0.50
0.242
0.28
0.131
0.43
0.219
0.33
0.1129
0.844
0.778
0.645
0.591
0.509
0.342
0.291
0.157
0.52
0.133
0.26
0.115
0.32
0.15
0.38
0.106
0.28
0.28
0.205
0.109
0.26
0.206
0.27
0.428
0.370
0.264
0.186
0.113
0.42
0.131
0.26
0.206
0.0
0.270
0.253
0.129
0.43
0.371
0.324
0.205
0.120
0.46
0.29
0.133
0.25
0.216
0.33
0.181
0.25
0.254
0.33
0.389
0.337
0.219
0.128
0.46
0.291
0.27
0.81
0.34
0.131
0.34
0.232
0.26
0.283
0.28
0.82
0.26
0.185
0.30
0.157
0.29
0.194
0.28
0.13
0.29
0.176
0.29
0.176
0.27
0.217
0.33
0.129
0.26
0.89
0.29
0.149
0.115
0.25
0.129
0.30
0.125
0.25
0.93
0.30
0.88
0.25
0.159
0.28
0.127
0.28
0.103
0.47
0.197
0.30
0.183
0.31
0.86
0.25
0.189
0.138
0.30
0.365
0.96
0.31
0.48
0.152
0.34
0.730
0.161
0.28
0.182
0.0
0.136
0.28
0.1330
0.1283
0.420
0.195
0.67
0.26
0.244
0.195
0.115
0.43
0.34
0.152
0.27
0.135
0.27
0.114
0.94
0.45
0.25
0.25
0.65
0.26
0.143
0.82
0.27
0.120
0.26
0.204
0.36
0.87
0.27
0.547
0.37
0.118
0.27
0.88
0.36
0.81
0.25
0.574
0.484
0.295
0.198
0.121
0.45
0.227
0.470
0.420
0.327
0.277
0.200
0.125
0.41
0.158
0.27
0.77
0.25
0.196
0.28
0.141
0.39
0.257
0.28
0.157
0.27
0.106
0.25
0.131
0.27
0.270
0.12
0.126
0.27
0.57
0.47
0.46
0.268
0.28
0.137
0.28
0.252
0.379
0.168
0.34
0.114
0.126
0.26
0.52
0.123
0.97
0.91
0.111
0.63
0.32
0.86
0.111
0.60
0.52
0.144
0.39
0.93
0.105
0.214
0.56
0.256
0.34
0.60
0.79
0.49
0.112
0.48
0.56
0.41
0.67
0.91
0.118
0.123
0.26
0.81
0.97
0.33
0.127
0.78
0.121
0.26
0.73
0.44
0.93
0.47
0.192
0.34
0.114
0.80
0.68
0.52
0.160
0.26
0.51
0.48
0.182
0.58
0.60
0.31
0.79
0.72
0.84
0.210
0.27
0.58
0.125
0.27
0.68
0.131
0.28
0.65
0.72
0.74
0.143
0.37
0.108
0.51
0.148
0.30
0.136
0.81
0.62
0.163
0.26
0.56
0.72
0.122
0.186
0.29
0.78
0.156
0.77
0.76
0.52
0.31
0.155
0.87
0.73
0.69
0.45
0.87
0.56
0.31
0.83
0.78
0.104
0.56
0.76
0.60
0.154
0.26
0.250
0.198
0.31
0.87
0.56
0.54
0.24
0.171
0.101
0.107
0.60
0.110
0.26
0.303
0.13
0.78
0.56
0.119
0.210
0.64
0.120
0.73
0.307
0.248
0.93
0.75
0.77
0.70
0.83
0.50
0.57
0.78
0.56
0.31
0.68
0.91
0.94
0.48
0.47
0.98
0.52
0.53
0.129
0.26
0.75
0.49
0.49
0.74
0.393
0.27
0.77
0.597
0.23
0.60
0.22
0.136
0.28
0.64
0.114
0.67
0.110
0.72
0.158
0.27
0.74
0.66
0.168
0.47
0.140
0.23
0.61
0.51
0.94
0.48
0.45
0.134
0.52
0.52
0.23
0.94
0.48
0.49
0.23
0.92
0.160
0.154
0.27
0.52
0.51
0.446
0.338
0.34
0.67
0.63
0.70
0.61
0.178
0.29
0.459
0.40
0.93
0.62
0.72
0.118
0.14
0.37
0.107
0.54
0.98
0.51
0.48
0.109
0.167
0.97
0.134
0.15
0.57
0.101
0.31
0.274
0.25
0.110
0.71
0.63
0.123
0.26
0.59
0.52
0.52
0.58
0.52
0.85
0.74
0.59
0.126
0.39
0.62
0.60
0.50
0.216
0.127
0.58
0.207
0.50
0.79
0.62
0.56
0.53
0.53
0.73
0.44
0.53
0.53
0.53
0.55
0.61
0.159
0.65
0.181
0.47
0.45
0.46
0.46
0.48
0.138
0.59
0.156
0.77
0.135
0.27
0.65
0.144
0.28
0.223
0.163
0.25
0.84
0.229
0.30
0.129
0.49
0.56
0.119
0.63
0.56
0.34
0.27
0.36
0.71
0.27
0.57
0.189
0.29
0.27
0.64
0.28
0.28
0.290
0.229
0.51
0.157
0.92
0.30
0.119
0.56
0.27
0.250
0.203
0.118
0.73
0.25
0.101
0.71
0.27
0.76
0.25
0.102
0.70
0.25
0.516
0.457
0.271
0.182
0.41
0.104
0.32
0.110
0.25
0.943
0.35
0.185
0.34
0.123
0.25
0.195
0.39
0.223
0.78
0.25
0.98
0.31
0.176
0.30
0.121
0.27
0.117
0.26
0.148
0.28
0.296
0.244
0.125
0.46
0.28
0.129
0.26
0.92
0.29
0.84
0.27
0.12
0.25
0.77
0.25
0.76
0.31
0.128
0.27
0.110
0.26
0.179
0.41
0.123
0.26
0.235
0.52
0.79
0.22
0.162
0.26
0.242
0.28
0.117
0.26
0.1969
0.35
0.444
0.0
0.138
0.34
0.503
0.85
0.250
0.36
0.109
0.26
0.13
0.29
0.115
0.27
0.146
0.28
0.81
0.26
0.117
0.28
0.144
0.31
0.83
0.25
0.101
0.26
0.80
0.82
0.77
0.25
0.76
0.25
0.123
0.67
0.22
0.73
0.26
0.74
0.23
0.69
0.22
0.66
0.25
0.70
0.22
0.77
0.25
0.1289
0.1226
0.1057
0.797
0.259
0.54
0.179
0.218
0.149
0.50
0.100
0.35
0.104
0.38
0.398
0.327
0.132
0.44
0.211
0.176
0.644
0.31
0.104
0.26
0.541
0.492
0.409
0.327
0.255
0.186
0.116
0.46
0.27
0.115
0.72
0.25
0.69
0.25
0.152
0.157
0.82
0.105
0.27
0.136
0.26
0.126
0.21
0.42
0.188
0.36
0.152
0.29
0.209
0.36
0.130
0.26
0.110
0.27
0.119
0.24
0.136
0.85
0.43
0.81
0.25
0.97
0.24
0.23
0.141
0.16
0.173
0.28
0.37
0.33
0.33
0.89
0.25
0.120
0.31
0.82
0.26
0.79
0.124
0.27
0.239
0.36
0.1182
0.38
0.124
0.27
0.160
0.101
0.27
0.61
0.26
0.156
0.138
0.71
0.25
0.75
0.23
0.83
0.25
0.100
0.25
0.81
0.25
0.12
0.25
0.108
0.26
0.113
0.33
0.100
0.31
0.163
0.26
0.15
0.26
0.148
0.29
0.358
0.28
0.190
0.122
0.133
0.28
0.123
0.98
0.34
0.131
0.30
0.117
0.91
0.94
0.29
0.91
0.51
0.120
0.26
0.178
0.74
0.108
0.95
0.30
0.19
0.40
0.114
0.28
0.132
0.25
0.89
0.33
0.128
0.30
0.242
0.51
0.121
0.25
0.354
0.321
0.43
0.191
0.164
0.28
0.85
0.30
0.99
0.30
0.211
0.48
0.160
0.25
0.25
0.95
0.23
0.125
0.27
0.124
0.25
0.88
0.30
0.93
0.25
0.89
0.38
0.428
0.293
0.247
0.216
0.175
0.18
0.117
0.33
0.125
0.26
0.225
0.102
0.122
0.115
0.27
0.116
0.30
0.345
0.295
0.189
0.114
0.39
0.103
0.31
0.116
0.79
0.27
0.77
0.27
0.72
0.24
0.69
0.25
0.91
0.85
0.162
0.78
0.132
0.36
0.307
0.40
0.196
0.74
0.40
0.64
0.33
0.90
0.25
0.153
0.34
0.104
0.29
0.280
0.216
0.54
0.88
0.25
0.80
0.25
0.70
0.25
0.122
0.26
0.175
0.152
0.27
0.79
0.26
0.95
0.25
0.14
0.26
0.169
0.33
0.136
0.30
0.798
0.718
0.548
0.404
0.295
0.162
0.52
0.112
0.72
0.25
0.71
0.24
0.73
0.24
0.426
0.75
0.24
0.83
0.0
0.235
0.37
0.143
0.41
0.116
0.28
0.181
0.32
0.176
0.29
0.163
0.61
0.34
0.97
0.30
0.451
0.94
0.95
0.258
0.16
0.88
0.29
0.163
0.26
0.106
0.14
0.216
0.291
0.110
0.27
0.137
0.27
0.82
0.75
0.26
0.117
0.26
0.186
0.35
0.147
0.30
0.112
0.29
0.158
0.361
0.314
0.224
0.147
0.79
0.26
0.97
0.25
0.304
0.33
0.101
0.27
0.102
0.36
0.85
0.25
0.79
0.25
0.86
0.25
0.634
0.89
0.306
0.27
0.157
0.44
0.176
0.34
0.195
0.27
0.232
0.30
0.95
0.26
0.124
0.27
0.89
0.26
0.79
0.25
0.74
0.25
0.82
0.28
0.74
0.25
0.121
0.26
0.162
0.25
0.209
0.31
0.30
0.184
0.34
0.130
0.28
0.98
0.27
0.134
0.25
0.84
0.26
0.73
0.30
0.77
0.25
0.170
0.31
0.133
0.27
0.139
0.26
0.212
0.28
0.199
0.34
0.120
0.28
0.108
0.29
0.98
0.51
0.127
0.28
0.76
0.26
0.9
0.26
0.164
0.26
0.566
0.517
0.284
0.168
0.48
0.152
0.26
0.103
0.26
0.199
0.36
0.33
0.171
0.27
0.360
0.302
0.188
0.75
0.121
0.26
0.106
0.84
0.107
0.81
0.83
0.14
0.125
0.25
0.113
0.25
0.363
0.320
0.124
0.55
0.84
0.25
0.73
0.39
0.74
0.24
0.245
0.199
0.123
0.49
0.213
0.48
0.146
0.270
0.417
0.94
0.84
0.83
0.171
0.27
0.125
0.25
0.246
0.31
0.175
0.120
0.110
0.81
0.25
0.31
0.99
0.29
0.142
0.24
0.150
0.31
0.103
0.24
0.83
0.72
0.25
0.305
0.26
0.147
0.27
0.195
0.26
0.180
0.26
0.109
0.32
0.209
0.26
0.75
0.26
0.103
0.25
0.130
0.26
0.137
0.76
0.31
0.75
0.25
0.73
0.24
0.73
0.24
0.82
0.25
0.78
0.26
0.129
0.26
0.118
0.91
0.124
0.71
0.25
0.106
0.23
0.97
0.35
0.193
0.30
0.135
0.35
0.101
0.26
0.13
0.31
0.124
0.30
0.164
0.26
0.1141
0.25
0.33
0.186
0.26
0.75
0.23
0.120
0.24
0.87
0.26
0.170
0.37
0.127
0.28
0.84
0.26
0.72
0.25
0.85
0.25
0.89
0.26
0.86
0.40
0.112
0.26
0.38
0.198
0.28
0.155
0.25
0.135
0.26
0.179
0.25
0.128
0.27
0.152
0.80
0.167
0.30
0.125
0.27
0.118
0.26
0.77
0.25
0.82
0.25
0.84
0.25
0.91
0.25
0.71
0.34
0.70
0.25
0.119
0.27
0.316
0.28
0.89
0.26
0.253
0.73
0.26
0.106
0.28
0.225
0.154
0.111
0.24
0.28
0.210
0.28
0.86
0.36
0.174
0.24
0.79
0.25
0.128
0.31
0.94
0.25
0.108
0.25
0.107
0.28
0.104
0.230
0.184
0.111
0.41
0.25
0.83
0.40
0.162
0.32
0.179
0.27
0.114
0.26
0.107
0.26
0.156
0.33
0.125
0.56
0.266
0.33
0.249
0.0
0.119
0.26
0.70
0.24
0.71
0.24
0.95
0.23
0.139
0.24
0.278
0.28
0.190
0.26
0.74
0.26
0.101
0.25
0.257
0.74
0.26
0.76
0.37
0.141
0.28
0.122
0.32
0.345
0.102
0.12
0.73
0.25
0.84
0.25
0.124
0.31
0.105
0.45
0.94
0.25
0.83
0.26
0.121
0.32
0.133
0.26
0.252
0.205
0.111
0.38
0.203
0.29
0.487
0.31
0.163
0.34
0.83
0.25
0.158
0.104
0.34
0.126
0.34
0.90
0.146
0.79
0.27
0.103
0.25
0.93
0.25
0.82
0.24
0.72
0.25
0.141
0.27
0.121
0.26
0.86
0.70
0.24
0.77
0.39
0.487
0.37
0.130
0.26
0.106
0.30
0.126
0.31
0.96
0.23
0.80
0.25
0.75
0.31
0.81
0.24
0.79
0.22
0.83
0.27
0.94
0.25
0.644
0.456
0.35
0.29
0.125
0.109
0.25
0.111
0.69
0.33
0.85
0.31
0.111
0.25
0.96
0.27
0.123
0.25
0.71
0.24
0.77
0.25
0.102
0.103
0.93
0.25
0.96
0.29
0.146
0.195
0.138
Top-half executions: 11369
Bottom-half executions: 11369
